10/20/21 16:06

Problem 1 (3 points):
Score += 3

Problem 2 (3 points):
Score += 3

Problem 3 (8 points):
Score += 8

Problem 4 (8 points):
-1 pt incorrect equillibria on second plot
Score += 7

Problem 5 (3 points):
Score += 3

Problem 6 (10 points):
Score += 10

Problem 7 (10 points):
-6 pts I think you know this is not right
Score += 4

Code Quality (5 points):
Score += 5

Total score: 43/50 = 86.0%

-------------------------------------------------------------------------------

